Mon Jun 10 2019 11:26:20 GMT+0000 (UTC)	Error: ER_PARSE_ERROR: You have an error in your SQL syntax; check the manual that corresponds to your MySQL server version for the right syntax to use near 'select CAST(select MAX(league_day) from ind_league_day where id = c.id as VARCHA' at line 1
Tue Jun 11 2019 08:19:22 GMT+0000 (UTC)	ReferenceError: videogame is not defined
Tue Jun 11 2019 08:21:51 GMT+0000 (UTC)	ReferenceError: videogame is not defined
Tue Jun 11 2019 08:24:27 GMT+0000 (UTC)	ReferenceError: videogame is not defined
Tue Jun 11 2019 08:57:08 GMT+0000 (UTC)	ReferenceError: token is not defined
Tue Jun 11 2019 08:59:17 GMT+0000 (UTC)	ReferenceError: description is not defined
Tue Jun 11 2019 08:59:26 GMT+0000 (UTC)	ReferenceError: description is not defined
Tue Jun 11 2019 08:59:36 GMT+0000 (UTC)	ReferenceError: description is not defined
Tue Jun 11 2019 09:00:51 GMT+0000 (UTC)	ReferenceError: description is not defined
Tue Jun 11 2019 09:02:51 GMT+0000 (UTC)	ReferenceError: description is not defined
Tue Jun 11 2019 09:04:25 GMT+0000 (UTC)	ReferenceError: description is not defined
Tue Jun 11 2019 09:07:49 GMT+0000 (UTC)	ReferenceError: description is not defined
Tue Jun 11 2019 09:09:15 GMT+0000 (UTC)	ReferenceError: token is not defined
Tue Jun 11 2019 09:09:30 GMT+0000 (UTC)	ReferenceError: token is not defined
Tue Jun 11 2019 09:12:42 GMT+0000 (UTC)	ReferenceError: token is not defined
Tue Jun 11 2019 09:13:51 GMT+0000 (UTC)	ReferenceError: token is not defined
Tue Jun 11 2019 09:14:33 GMT+0000 (UTC)	ReferenceError: token is not defined
Tue Jun 11 2019 13:46:31 GMT+0000 (UTC)	RangeError: Invalid status code: 3
Fri Jun 14 2019 23:52:57 GMT+0000 (UTC)	ReferenceError: credential is not defined
Fri Jun 14 2019 23:53:06 GMT+0000 (UTC)	ReferenceError: credential is not defined
